%YAML 1.1
%TAG !u! tag:unity3d.com,2011:
--- !u!114 &11400000
MonoBehaviour:
  m_ObjectHideFlags: 0
  m_PrefabParentObject: {fileID: 0}
  m_PrefabInternal: {fileID: 0}
  m_GameObject: {fileID: 0}
  m_Enabled: 1
  m_EditorHideFlags: 0
  m_Script: {fileID: -1893448595, guid: a040fb66244a7f54289914d98ea4ef7d, type: 3}
  m_Name: isGrounded
  m_EditorClassIdentifier: 
  _data:
    _json: '{"graph":{"variables":{"collection":{"$content":[],"$version":"A"},"$version":"A"},"controlInputDefinitions":[],"controlOutputDefinitions":[],"valueInputDefinitions":[],"valueOutputDefinitions":[{"_type":"System.Boolean","key":"grounded","label":"grounded","summary":null,"hideLabel":false}],"isListening":false,"pan":{"x":87.13202,"y":193.4091},"zoom":1.0,"elements":[{"type":"UnityEngine.LayerMask","value":{"value":256,"$type":"UnityEngine.LayerMask"},"defaultValues":{},"position":{"x":-28.0,"y":183.0},"guid":"d7d8ba9e-5b0d-4a74-a64f-52c1d6843ff7","$version":"A","$type":"Bolt.Literal","$id":"10"},{"member":{"name":"CircleCast","parameterTypes":["UnityEngine.Vector2","System.Single","UnityEngine.Vector2","System.Single","System.Int32"],"targetType":"UnityEngine.Physics2D","lastValidTargetTypeName":"UnityEngine.Physics2D","$version":"A"},"defaultValues":{"%origin":{"x":0.0,"y":0.0,"$type":"UnityEngine.Vector2"},"%radius":{"$content":0.5,"$type":"System.Single"},"%direction":{"x":0.0,"y":-1.0,"$type":"UnityEngine.Vector2"},"%distance":{"$content":1.0,"$type":"System.Single"},"%layerMask":{"$content":0,"$type":"System.Int32"}},"position":{"x":191.0,"y":-47.0},"guid":"a402f541-152f-49b2-a0da-2586074c1027","$version":"A","$type":"Bolt.InvokeMember","$id":"12"},{"member":{"name":"position","parameterTypes":null,"targetType":"UnityEngine.Transform","lastValidTargetTypeName":"UnityEngine.Transform","$version":"A"},"defaultValues":{"target":null},"position":{"x":-461.0,"y":-24.0},"guid":"a4a3ee18-c4b9-4521-b6bb-577d2e07deee","$version":"A","$type":"Bolt.GetMember","$id":"15"},{"member":{"name":"bounds","parameterTypes":null,"targetType":"UnityEngine.Sprite","lastValidTargetTypeName":"UnityEngine.Sprite","$version":"A"},"defaultValues":{"target":{"$content":0,"$type":"UnityEngine.Sprite"}},"position":{"x":-888.0,"y":-3.0},"guid":"ae85c10b-2041-40dd-94d7-a4a5dd42cc34","$version":"A","$type":"Bolt.GetMember","$id":"18"},{"defaultValues":{},"position":{"x":822.0,"y":112.0},"guid":"55812dd3-e1d2-495d-a883-4e6120cdde4f","$version":"A","$type":"Bolt.GraphOutput","$id":"21"},{"defaultValues":{},"position":{"x":466.0,"y":199.0},"guid":"53101513-6bc3-4d1a-9ec8-f91abcc4528d","$version":"A","$type":"Bolt.Null","$id":"23"},{"type":"UnityEngine.Vector2","instance":true,"static":false,"defaultValues":{"target":{"x":0.0,"y":0.0,"$type":"UnityEngine.Vector2"}},"position":{"x":-481.0,"y":90.0},"guid":"8653f05c-1a89-492a-87de-736e458f9555","$version":"A","$type":"Bolt.Expose","$id":"25"},{"type":"UnityEngine.RaycastHit2D","instance":true,"static":true,"defaultValues":{},"position":{"x":386.0,"y":-64.0},"guid":"fa492130-cfe1-4d07-9504-3d10f2e13f35","$version":"A","$type":"Bolt.Expose","$id":"27"},{"type":"UnityEngine.Bounds","instance":true,"static":true,"defaultValues":{},"position":{"x":-644.0,"y":73.0},"guid":"f5117207-887d-4fff-a572-b37faf1efd88","$version":"A","$type":"Bolt.Expose","$id":"29"},{"numeric":false,"defaultValues":{},"position":{"x":619.0,"y":113.0},"guid":"5503a73b-48a6-430c-84ee-7e85392781d8","$version":"A","$type":"Bolt.NotEqual","$id":"31"},{"defaultValues":{},"position":{"x":-208.0,"y":58.0},"guid":"0e07b114-6e6e-48b9-9c02-19a129a7dd0a","$version":"A","$type":"Bolt.GenericMultiply","$id":"33"},{"type":"System.Single","value":{"$content":0.5,"$type":"System.Single"},"defaultValues":{},"position":{"x":-311.0,"y":226.0},"guid":"a5f1533a-3d1f-4d38-9c38-ed740d94686d","$version":"A","$type":"Bolt.Literal","$id":"35"},{"sourceUnit":{"$ref":"25"},"sourceKey":"y","destinationUnit":{"$ref":"33"},"destinationKey":"a","guid":"13188bc6-3829-4518-8730-3fbcfbab3261","$type":"Bolt.ValueConnection"},{"sourceUnit":{"$ref":"12"},"sourceKey":"result","destinationUnit":{"$ref":"27"},"destinationKey":"target","guid":"20375b99-b6fa-4149-a88e-c39f0cb124a4","$type":"Bolt.ValueConnection"},{"sourceUnit":{"$ref":"10"},"sourceKey":"output","destinationUnit":{"$ref":"12"},"destinationKey":"%layerMask","guid":"4debc402-095c-4eea-9fdc-906ea143ff90","$type":"Bolt.ValueConnection"},{"sourceUnit":{"$ref":"31"},"sourceKey":"notEqual","destinationUnit":{"$ref":"21"},"destinationKey":"grounded","guid":"fccfea93-2f0b-4d5a-9182-f9e9c1c9b795","$type":"Bolt.ValueConnection"},{"sourceUnit":{"$ref":"18"},"sourceKey":"value","destinationUnit":{"$ref":"29"},"destinationKey":"target","guid":"677540d2-2f46-4508-8826-dde94a739edd","$type":"Bolt.ValueConnection"},{"sourceUnit":{"$ref":"15"},"sourceKey":"value","destinationUnit":{"$ref":"12"},"destinationKey":"%origin","guid":"8f822784-39f6-4c37-84a1-ea1801b9c3f4","$type":"Bolt.ValueConnection"},{"sourceUnit":{"$ref":"29"},"sourceKey":"size","destinationUnit":{"$ref":"25"},"destinationKey":"target","guid":"d5ca58d6-f8f9-43c7-bd1b-ecb5a10ae4ad","$type":"Bolt.ValueConnection"},{"sourceUnit":{"$ref":"27"},"sourceKey":"collider","destinationUnit":{"$ref":"31"},"destinationKey":"a","guid":"a5755de0-5fb5-42b4-8419-ae025aa304f2","$type":"Bolt.ValueConnection"},{"sourceUnit":{"$ref":"33"},"sourceKey":"product","destinationUnit":{"$ref":"12"},"destinationKey":"%radius","guid":"9ff07317-e0af-427a-8cab-6cd476190f0b","$type":"Bolt.ValueConnection"},{"sourceUnit":{"$ref":"23"},"sourceKey":"null","destinationUnit":{"$ref":"31"},"destinationKey":"b","guid":"1e295e6f-4521-4921-8635-ad5c010c0cad","$type":"Bolt.ValueConnection"},{"sourceUnit":{"$ref":"35"},"sourceKey":"output","destinationUnit":{"$ref":"33"},"destinationKey":"b","guid":"2786ada2-e8d3-42ca-a825-294e96e84d9b","$type":"Bolt.ValueConnection"},{"sourceUnit":{"$ref":"33"},"sourceKey":"product","destinationUnit":{"$ref":"12"},"destinationKey":"%distance","guid":"61300b56-9f98-4540-ad2f-2c7d7cf4388b","$type":"Bolt.ValueConnection"}],"title":null,"summary":null,"$version":"A"}}'
    _objectReferences:
    - {fileID: 21300000, guid: c3970b9d59fe94b3988f08c777c82d3b, type: 3}
